{
    "schema_version":"1.0",
    "criteria":[
        {
            "tguid":"2048_Kb_Record_Read.Fread.Score",
            "reference":{
                "value":1,
                "operator":"ge"
            }
        },
        {
            "tguid":"2048_Kb_Record_Read.Random_read.Score",
            "reference":{
                "value":1,
                "operator":"ge"
            }
        },
        {
            "tguid":"2048_Kb_Record_Read.ReFread.Score",
            "reference":{
                "value":1,
                "operator":"ge"
            }
        },
        {
            "tguid":"2048_Kb_Record_Read.ReRead.Score",
            "reference":{
                "value":1,
                "operator":"ge"
            }
        },
        {
            "tguid":"2048_Kb_Record_Read.Read.Score",
            "reference":{
                "value":1,
                "operator":"ge"
            }
        },
        {
            "tguid":"2048_Kb_Record_Write.Fwrite.Score",
            "reference":{
                "value":1,
                "operator":"ge"
            }
        },
        {
            "tguid":"2048_Kb_Record_Write.Random_write.Score",
            "reference":{
                "value":1,
                "operator":"ge"
            }
        },
        {
            "tguid":"2048_Kb_Record_Write.ReFwrite.Score",
            "reference":{
                "value":1,
                "operator":"ge"
            }
        },
        {
            "tguid":"2048_Kb_Record_Write.ReWrite.Score",
            "reference":{
                "value":1,
                "operator":"ge"
            }
        },
        {
            "tguid":"2048_Kb_Record_Write.Write.Score",
            "reference":{
                "value":1,
                "operator":"ge"
            }
        }
    ]
}
