{
    "testName": "Functional.kernel_build",
    "specs": {
        "default": {
            "gitrepo": "https://github.com/torvalds/linux.git",
            "config": "tinyconfig",
            "deploy_method": "local_dir",
            "deploy_path": "/fuego-rw/boards/$NODE_NAME/"
        },
        "lts-414y": {
            "gitrepo": "https://git.kernel.org/pub/scm/linux/kernel/git/stable/linux-stable.git",
            "gitref": "linux-4.14.y"
        },
        "lts-49y": {
            "gitrepo": "https://git.kernel.org/pub/scm/linux/kernel/git/stable/linux-stable.git",
            "gitref": "linux-4.9.y"
        },
        "lts-44y": {
            "gitrepo": "https://git.kernel.org/pub/scm/linux/kernel/git/stable/linux-stable.git",
            "gitref": "linux-4.4.y"
        },
        "cip-x86": {
            "gitrepo": "https://github.com/cip-project/linux-cip.git"
        },
        "template": {
            "gitrepo": "https://xxx/yyy.git",
            "gitref": "my_tag_branch_or_commit_id",
            "config": "defconfig",
            "target": "Image",
            "params": "-j8",
            "deploy_method": "local_dir",
            "regex_p": "^  OBJCOPY arch/arm64/boot/Image"
        }
    }
}
