{
    "schema_version":"1.0",
    "criteria":[
        { "tguid":"default.m01.number", "reference":{ "operator":"lt", "value":5 }},
        { "tguid":"default.measure_01_lt_check_low.number", "reference":{ "operator":"eq", "value":0 }},
        { "tguid":"default.m02.number", "reference":{ "operator":"lt", "value":5 }},
        { "tguid":"default.measure_02_lt_check_hit.number", "reference":{ "operator":"eq", "value":1 }},
        { "tguid":"default.m03.number", "reference":{ "operator":"lt", "value":5 }},
        { "tguid":"default.measure_03_lt_check_high.number", "reference":{ "operator":"eq", "value":1 }},
        { "tguid":"default.m04.number", "reference":{ "operator":"le", "value":5 }},
        { "tguid":"default.measure_04_le_check_low.number", "reference":{ "operator":"eq", "value":0 }},
        { "tguid":"default.m05.number", "reference":{ "operator":"le", "value":5 }},
        { "tguid":"default.measure_05_le_check_hit.number", "reference":{ "operator":"eq", "value":0 }},
        { "tguid":"default.m06.number", "reference":{ "operator":"le", "value":5 }},
        { "tguid":"default.measure_06_le_check_high.number", "reference":{ "operator":"eq", "value":1 }},
        { "tguid":"default.m07.number", "reference":{ "operator":"gt", "value":5 }},
        { "tguid":"default.measure_07_gt_check_low.number", "reference":{ "operator":"eq", "value":1 }},
        { "tguid":"default.m08.number", "reference":{ "operator":"gt", "value":5 }},
        { "tguid":"default.measure_08_gt_check_hit.number", "reference":{ "operator":"eq", "value":1 }},
        { "tguid":"default.m09.number", "reference":{ "operator":"gt", "value":5 }},
        { "tguid":"default.measure_09_gt_check_high.number", "reference":{ "operator":"eq", "value":0 }},
        { "tguid":"default.m10.number", "reference":{ "operator":"ge", "value":5 }},
        { "tguid":"default.measure_10_ge_check_low.number", "reference":{ "operator":"eq", "value":1 }},
        { "tguid":"default.m11.number", "reference":{ "operator":"ge", "value":5 }},
        { "tguid":"default.measure_11_ge_check_hit.number", "reference":{ "operator":"eq", "value":0 }},
        { "tguid":"default.m12.number", "reference":{ "operator":"ge", "value":5 }},
        { "tguid":"default.measure_12_ge_check_high.number", "reference":{ "operator":"eq", "value":0 }},
        { "tguid":"default.m13.number", "reference":{ "operator":"eq", "value":5 }},
        { "tguid":"default.measure_13_eq_check_low.number", "reference":{ "operator":"eq", "value":1 }},
        { "tguid":"default.m14.number", "reference":{ "operator":"eq", "value":5 }},
        { "tguid":"default.measure_14_eq_check_hit.number", "reference":{ "operator":"eq", "value":0 }},
        { "tguid":"default.m15.number", "reference":{ "operator":"eq", "value":5 }},
        { "tguid":"default.measure_15_eq_check_high.number", "reference":{ "operator":"eq", "value":1 }},
        { "tguid":"default.m16.number", "reference":{ "operator":"ne", "value":5 }},
        { "tguid":"default.measure_16_ne_check_low.number", "reference":{ "operator":"eq", "value":0 }},
        { "tguid":"default.m17.number", "reference":{ "operator":"ne", "value":5 }},
        { "tguid":"default.measure_17_ne_check_hit.number", "reference":{ "operator":"eq", "value":1 }},
        { "tguid":"default.m18.number", "reference":{ "operator":"ne", "value":5 }},
        { "tguid":"default.measure_18_ne_check_high.number", "reference":{ "operator":"eq", "value":0 }},
        { "tguid":"default.m19.number", "reference":{ "operator":"bt", "value":"3,7" }},
        { "tguid":"default.measure_19_bt_check_low.number", "reference":{ "operator":"eq", "value":1 }},
        { "tguid":"default.m20.number", "reference":{ "operator":"bt", "value":"3,7" }},
        { "tguid":"default.measure_20_bt_check_hit1.number", "reference":{ "operator":"eq", "value":0 }},
        { "tguid":"default.m21.number", "reference":{ "operator":"bt", "value":"3,7" }},
        { "tguid":"default.measure_21_bt_check_mid.number", "reference":{ "operator":"eq", "value":0 }},
        { "tguid":"default.m22.number", "reference":{ "operator":"bt", "value":"3,7" }},
        { "tguid":"default.measure_22_bt_check_hit2.number", "reference":{ "operator":"eq", "value":0 }},
        { "tguid":"default.m23.number", "reference":{ "operator":"bt", "value":"3,7" }},
        { "tguid":"default.measure_23_bt_check_high.number", "reference":{ "operator":"eq", "value":1 }},
        { "tguid":"default.m24.number", "reference":{ "operator":"bt", "value":"-7,-3" }},
        { "tguid":"default.measure_24_bt_check_low.number", "reference":{ "operator":"eq", "value":1 }},
        { "tguid":"default.m25.number", "reference":{ "operator":"bt", "value":"-7,-3" }},
        { "tguid":"default.measure_25_bt_check_hit1.number", "reference":{ "operator":"eq", "value":0 }},
        { "tguid":"default.m26.number", "reference":{ "operator":"bt", "value":"-7,-3" }},
        { "tguid":"default.measure_26_bt_check_mid.number", "reference":{ "operator":"eq", "value":0 }},
        { "tguid":"default.m27.number", "reference":{ "operator":"bt", "value":"-7,-3" }},
        { "tguid":"default.measure_27_bt_check_hit2.number", "reference":{ "operator":"eq", "value":0 }},
        { "tguid":"default.m28.number", "reference":{ "operator":"bt", "value":"-7,-3" }},
        { "tguid":"default.measure_28_bt_check_high.number", "reference":{ "operator":"eq", "value":1 }},
        { "tguid":"default.m29.number", "reference":{ "operator":"eq", "value":"0" }},
        { "tguid":"default.measure_29_eq_check_one_v_zero.number", "reference":{ "operator":"eq", "value":1 }},
        { "tguid":"default.m30.number", "reference":{ "operator":"eq", "value":"0" }},
        { "tguid":"default.measure_30_eq_check_zero_v_zero.number", "reference":{ "operator":"eq", "value":0 }},
        { "tguid":"default.m31.number", "reference":{ "operator":"eq", "value":"1" }},
        { "tguid":"default.measure_31_eq_check_zero_v_one.number", "reference":{ "operator":"eq", "value":1 }}
    ]
}
