{
    "testName": "Benchmark.fuego_check_criteria_handling",
    "specs": {
        "default": {
        },
        "gen_results": {
            "NUMBER": "1",
            "TC_NUM": "01"
        }
    }
}
