{
    "schema_version":"1.0",
    "criteria":[
        {
            "tguid":"default.size.In_use",
            "reference": {
                "value": 64000,
                "operator": "lt"
            }
        }
    ]
}
