{
    "testName": "Functional.LTP",
    "specs": {
        "all": {
            "tests": "all",
            "noautoskip": "true",
            "extra_success_links": {"xlsx": "results.xlsx", "skiplist": "skiplist.txt"},
            "extra_fail_links": {"xlsx": "results.xlsx", "skiplist": "skiplist.txt"}
        },
        "default": {
            "tests": "syscalls SEM",
            "extra_success_links": {"xlsx": "results.xlsx", "skiplist": "skiplist.txt"},
            "extra_fail_links": {"xlsx": "results.xlsx", "skiplist": "skiplist.txt"}
        },
        "docker": {
            "tests": "syscalls",
            "skiplist": "kill10 keyctl01",
            "extra_success_links": {"xlsx": "results.xlsx", "skiplist": "skiplist.txt"},
            "extra_fail_links": {"xlsx": "results.xlsx", "skiplist": "skiplist.txt"}
        },
        "selection": {
            "tests": "syscalls fs pipes sched timers dio mm ipc pty AIO MSG SEM SIG THR TMR TPS",
            "extra_success_links": {"xlsx": "results.xlsx", "skiplist": "skiplist.txt"},
            "extra_fail_links": {"xlsx": "results.xlsx", "skiplist": "skiplist.txt"}
        },
        "install": {
            "tests": "syscalls",
            "noautoskip": "true",
            "phases": "build deploy",
            "need_homedir": "true"
        },
        "make_pkg": {
            "tests": "syscalls",
            "phases": "build maketar",
            "extra_success_links": {"tar.gz": "ltp.tar.gz"}
        },
        "selectionwithrt": {
            "tests": "syscalls fs pipes sched timers dio mm ipc pty AIO MSG SEM SIG THR TMR TPS func/hrtimer-prio func/pi-tests func/rt-migrate func/sched_latency func/sched_jitter",
            "skiplist": "kill10 keyctl01 inotify06",
            "extra_success_links": {"xlsx": "results.xlsx", "skiplist": "skiplist.txt"},
            "extra_fail_links": {"xlsx": "results.xlsx", "skiplist": "skiplist.txt"}
        },
        "ltplite": {
            "tests": "ltplite",
            "extra_success_links": {"xlsx": "results.xlsx", "skiplist": "skiplist.txt"},
            "extra_fail_links": {"xlsx": "results.xlsx", "skiplist": "skiplist.txt"}
        },
        "ptsonly": {
            "tests": "AIO MEM MSG SEM SIG THR TMR TPS",
            "extra_success_links": {"xlsx": "results.xlsx", "skiplist": "skiplist.txt"},
            "extra_fail_links": {"xlsx": "results.xlsx", "skiplist": "skiplist.txt"}
        },
        "smoketest": {
            "tests": "smoketest",
            "noautoskip": "true",
            "extra_success_links": {"xlsx": "results.xlsx", "skiplist": "skiplist.txt"},
            "extra_fail_links": {"xlsx": "results.xlsx", "skiplist": "skiplist.txt"}
        },
        "smoketestwithskips": {
            "tests": "smoketest",
            "noautoskip": "true",
            "skiplist": "chdir01",
            "extra_success_links": {"xlsx": "results.xlsx", "skiplist": "skiplist.txt"},
            "extra_fail_links": {"xlsx": "results.xlsx", "skiplist": "skiplist.txt"}
        },
        "rtonly": {
            "tests": "func/hrtimer-prio func/pi-tests func/rt-migrate func/sched_latency func/sched_jitter",
            "extra_success_links": {"xlsx": "results.xlsx", "skiplist": "skiplist.txt"},
            "extra_fail_links": {"xlsx": "results.xlsx", "skiplist": "skiplist.txt"}
        },
        "somefail": {
            "tests": "timers pty",
            "extra_success_links": {"xlsx": "results.xlsx", "skiplist": "skiplist.txt"},
            "extra_fail_links": {"xlsx": "results.xlsx", "skiplist": "skiplist.txt"}
        },
        "security": {
            "tests": "cve",
            "extra_success_links": {"xlsx": "results.xlsx", "skiplist": "skiplist.txt"},
            "extra_fail_links": {"xlsx": "results.xlsx", "skiplist": "skiplist.txt"}
        },
        "latest": {
            "PER_JOB_BUILD": "true",
            "gitrepo": "https://github.com/linux-test-project/ltp.git",
            "gitref": "20210524",
            "tests": "syscalls AIO MEM MSG SEM SIG THR TMR TPS",
            "extra_success_links": {"xlsx": "results.xlsx", "skiplist": "skiplist.txt"},
            "extra_fail_links": {"xlsx": "results.xlsx", "skiplist": "skiplist.txt"}
        }
    }
}
