{
    "testPlanName": "ltsi",
    "default_timeout": "7m",
    "default_spec": "default",
    "tests": [
        {
            "testName": "Benchmark.Dhrystone",
            "spec": "100M"
        },
        {
            "testName": "Benchmark.dbench4"
        },
        {
            "testName": "Benchmark.hackbench"
        },
        {
            "testName": "Benchmark.Whetstone"
        },
        {
            "testName": "Benchmark.linpack"
        },
        {
            "testName": "Benchmark.bonnie"
        },
        {
            "testName": "Benchmark.ffsb"
        },
        {
            "testName": "Benchmark.fio",
            "timeout": "15m"
        },
        {
            "testName": "Benchmark.IOzone"
        },
        {
            "testName": "Benchmark.tiobench",
            "timeout": "10m"
        },
        {
            "testName": "Benchmark.netperf",
            "timeout": "10m"
        },
        {
            "testName": "Benchmark.Java"
        },
        {
            "testName": "Functional.kernel_build",
            "timeout": "100m"
        },
        {
            "testName": "Functional.LTP",
            "timeout": "100m"
        },
        {
            "testName": "Functional.expat"
        },
        {
            "testName": "Functional.synctest"
        },
        {
            "testName": "Functional.aiostress"
        },
        {
            "testName": "Functional.bzip2"
        },
        {
            "testName": "Functional.crashme"
        },
        {
            "testName": "Functional.glib",
            "timeout": "20m"
        },
        {
            "testName": "Functional.ipv6connect"
        },
        {
            "testName": "Functional.ft2demos"
        },
        {
            "testName": "Functional.linus_stress",
            "timeout": "20m"
        },
        {
            "testName": "Functional.rmaptest",
            "timeout": "15m"
        },
        {
            "testName": "Functional.stress"
        },
        {
            "testName": "Functional.bc"
        },
        {
            "testName": "Functional.zlib"
        },
        {
            "testName": "Functional.hello_world"
        },
        {
            "testName": "Functional.jpeg"
        },
        {
            "testName": "Functional.netperf",
            "timeout": "10m"
        }
    ]
}
